%YAML 1.1
%TAG !u! tag:unity3d.com,2011:
--- !u!1045 &1
EditorBuildSettings:
  m_ObjectHideFlags: 0
  serializedVersion: 2
  m_Scenes:
  - enabled: 1
    path: Assets/Main Build/Scenes/Entrance.unity
    guid: 5f999f1264176844ba59494f4692bc43
  - enabled: 1
    path: Assets/Main Build/Scenes/Laboratory.unity
    guid: 0a20781540afbf04c9553c4d27795163
  - enabled: 1
    path: Assets/Main Build/Scenes/Ice Age.unity
    guid: 765ba2c98c184b846b396b9a7cda2a8f
  - enabled: 1
    path: Assets/Main Build/Scenes/Throne Room.unity
    guid: 88cd41f060a93614689fa0b503b58801
  - enabled: 1
    path: Assets/Scenes/LabPuzzle.unity
    guid: 42fb8dfbfb59c05439382b9b63bc3d69
  - enabled: 1
    path: Assets/Scenes/BlocksPuzzle.unity
    guid: 878aadb86fc535b4a84f45d4a2dee52a
  m_configObjects:
    com.unity.input.settings: {fileID: 11400000, guid: 38a08e1df5323c24482b4e5290dd9e16, type: 2}
